{
"urls": [
{
 "url":"https://raw.iqiq.io/leevi0709/duo/main/v.json",
  "name":"🔔点击选择下方线路"
},
{
"url": "https://raw.iqiq.io/leevi0709/duo/main/v.json",
"name":"🏡应用多多家庭版"
},
{
"url":"https://神器每日推送.tk/pz.json",
"name":"🐹神器线路"
},
{
"url":"http://52bsj.vip:81/api/v3/file/get/29899/box2.json?sign=3cVyKZQr3lFAwdB3HK-A7h33e0MnmG6lLB9oWlvSNnM%3D%3A0",
"name":"🐹月光宝盒"
},
{
"url":"http://111.67.196.181/mtv/meow.txt",
"name":"🐹太阳线路"
},
{
"url":"http://byyds.top/w.txt",
"name":"🐹BYYDS线路"
},
{
"url":"https://agit.ai/66666/mao/raw/branch/master/00/000.m3u8",
"name":"🐹分享者线路"
},
{
"url": "https://ju.binghe.ga/4.txt",
"name":"🐹冰河线路"
},
{
"url":"https://maoyingshi.cc/tvbox/云星日记/1.m3u8",
"name":"🐹云星家庭"
},
{
"url": "http://maoyingshi.cc/tvbox/云星日记/bili.json",
 "name": "🐹云星哔哩"
},
{
"url": "http://maoyingshi.cc/tvbox/云星日记/ali.m3u8",
"name": "🐹云星阿里"
},
{
 "url":"http://000913.xyz/box/tv.json",
"name":"🐹源享家线路"
},
{
"url":"https://agit.ai/66666/mao/raw/branch/master/00/%E8%87%AA%E7%94%A8.jpg",
"name":"🐹agit/66666线路"
},
{
"url":"https://share.nite07.com/api/v3/file/source/13485/0716.txt?sign=dxhV79Bv7z8Dc-UIC75rWZ50Z1qFYUJxqOwaBsKhKQU=:0",
"name":"🐹蚂蚁论坛线路"
}
]
}
